…
Download [rawcashflows.csv](assets/rawcashflows.csv) and save the file in the `data` directory.

Enter the following code in the console to open the project

```R
> load.project()
```

ProjectTemplate will print out a number of messages as the project opens.  As part of this process, all data in the `data` directory is automatically loaded into memory.  You can check the data has been loaded by running

```R
> head(rawcashflows)

# A tibble: 72 x 7
       X line1  line2  line3  line4  line5 line6
   <int> <dbl>  <dbl>  <dbl>  <dbl>  <dbl> <dbl>
 1     1 5419. 15614. 16292. 12964. 19732. 4725.
 2     2 5579. 15929. 16591. 13897. 20291. 3520.
 3     3 5450. 15523. 16307. 14247. 20555. 3349.
 4     4 4916. 15189. 16794. 14597. 20652. 3221.
 5     5 3708. 14143. 15792. 13759. 20371. 2728.
 6     6 3516. 13726. 15792. 13702. 20802. 2606.
 7     7 3531. 13649. 15453. 14007. 19801. 2326.
 8     8 4268. 13385. 15379. 13630. 19711. 2808.
 9     9 4778. 13385. 15386. 13117. 18826. 2315.
10    10 4418. 13317. 16191. 12541. 18602. 2068.
# ... with 62 more rows
```
…
